<svg xmlns="http://www.w3.org/2000/svg" viewBox="0 0 16 16" id="avatar-line">
    <path d="M8,0C3.582,0,0,3.582,0,8c0,4.418,3.582,8,8,8c4.418,0,8-3.582,8-8C16,3.582,12.418,0,8,0z M8,0.735
	c4.013,0,7.266,3.252,7.266,7.265c0,1.706-0.59,3.274-1.575,4.515c-0.301-0.455-0.784-0.887-1.507-1.16
	c-0.897-0.341-2.558-1.075-2.633-1.49c-0.058-0.317,0.16-0.621,0.286-0.789c0.143-0.191,0.578-0.912,0.762-1.62
	c0.123-0.473,0.681-2.897-0.377-4.208c-0.46-0.571-1.319-0.94-2.187-0.94c-0.893,0-1.801,0.379-2.261,0.944
	c-1.16,1.431-0.522,3.995-0.468,4.232c0.167,0.731,0.677,1.44,0.734,1.551c0.116,0.225,0.37,0.41,0.313,0.83
	c-0.02,0.149-0.612,0.722-2.625,1.483c-0.653,0.247-1.149,0.667-1.465,1.108C1.306,11.225,0.735,9.68,0.735,8
	C0.735,3.987,3.987,0.735,8,0.735z M8,15.266c-2.097,0-3.986-0.891-5.312-2.312c0.447-0.578,0.906-0.852,1.74-1.188
	c1.714-0.694,2.48-1.215,2.562-1.807C7.042,9.575,7,9.347,6.844,9.143C6.781,9.058,6.213,8.208,6.061,7.704
	C5.898,7.164,5.347,5.184,6.163,3.837c0.312-0.515,1.071-0.878,1.82-0.878c0.762,0,1.383,0.326,1.742,0.816
	c0.857,1.174,0.326,3.275,0.122,3.898c-0.161,0.493-0.738,1.38-0.796,1.468c-0.133,0.205-0.189,0.52-0.152,0.817
	c0.081,0.663,1.611,1.398,2.448,1.755c0.744,0.317,1.488,0.599,1.889,1.32C11.914,14.409,10.058,15.266,8,15.266z"></path>
</svg>